…
```
## See spec(...) for full column specifications.
```

```
## Warning: Unreplaced values treated as NA as .x is not compatible. Please
## specify replacements exhaustively or supply .default
```

```
## # A tibble: 19,719 x 62
##      age country  race
##    <int>   <chr> <int>
##  1    53      US     3
##  2    46      US    13
##  3    14      PK     1
##  4    19      RO     3
##  5    25      US    11
##  6    31      US    13
##  7    20      US     5
##  8    23      IN     4
##  9    39      US     5
## 10    18      US     3
## # ... with 19,709 more rows, and 59 more variables: race_fac <chr>,
## #   engnat <int>, eng_nat_fac <chr>, gender <int>, gender_fac <chr>,
## #   hand <int>, hand_fac <chr>, source <int>, source_fac <chr>, E1 <int>,
## #   E2 <int>, E3 <int>, E4 <int>, E5 <int>, E6 <int>, E7 <int>, E8 <int>,
## #   E9 <int>, E10 <int>, N1 <int>, N2 <int>, N3 <int>, N4 <int>, N5 <int>,
## #   N6 <int>, N7 <int>, N8 <int>, N9 <int>, N10 <int>, A1 <int>, A2 <int>,
## #   A3 <int>, A4 <int>, A5 <int>, A6 <int>, A7 <int>, A8 <int>, A9 <int>,
## #   A10 <int>, C1 <int>, C2 <int>, C3 <int>, C4 <int>, C5 <int>, C6 <int>,
## #   C7 <int>, C8 <int>, C9 <int>, C10 <int>, O1 <int>, O2 <int>, O3 <int>,
…
