Day 3. Vectors, strings, factors, and statistics
…
## Parsed with column specification:
## cols(
##   .default = col_integer(),
##   country = col_character()
## )

## See spec(...) for full column specifications.

## Warning: Unreplaced values treated as NA as .x is not compatible. Please
## specify replacements exhaustively or supply .default

## # A tibble: 19,719 x 62
##      age country  race
##    <int>   <chr> <int>
##  1    53      US     3
##  2    46      US    13
##  3    14      PK     1
##  4    19      RO     3
##  5    25      US    11
##  6    31      US    13
##  7    20      US     5
##  8    23      IN     4
##  9    39      US     5
## 10    18      US     3
## # ... with 19,709 more rows, and 59 more variables: race_fac <chr>,
## #   engnat <int>, eng_nat_fac <chr>, gender <int>, gender_fac <chr>,
## #   hand <int>, hand_fac <chr>, source <int>, source_fac <chr>, E1 <int>,
## #   E2 <int>, E3 <int>, E4 <int>, E5 <int>, E6 <int>, E7 <int>, E8 <int>,
## #   E9 <int>, E10 <int>, N1 <int>, N2 <int>, N3 <int>, N4 <int>, N5 <int>,
## #   N6 <int>, N7 <int>, N8 <int>, N9 <int>, N10 <int>, A1 <int>, A2 <int>,
## #   A3 <int>, A4 <int>, A5 <int>, A6 <int>, A7 <int>, A8 <int>, A9 <int>,
## #   A10 <int>, C1 <int>, C2 <int>, C3 <int>, C4 <int>, C5 <int>, C6 <int>,
## #   C7 <int>, C8 <int>, C9 <int>, C10 <int>, O1 <int>, O2 <int>, O3 <int>,
…
gather() dep_var columns into one column

select columns to gather

(time_data_long <- time_data %>%
  gather(time, dep_var, dep_var_1, dep_var_2, dep_var_3))

## # A tibble: 30 x 4
##       id exp_grp      time     dep_var
##    <int>  <fctr>     <chr>       <dbl>
##  1     1 Group 1 dep_var_1 -0.56047565
##  2     2 Group 1 dep_var_1 -0.23017749
##  3     3 Group 1 dep_var_1  1.55870831
##  4     4 Group 1 dep_var_1  0.07050839
##  5     5 Group 1 dep_var_1  0.12928774
##  6     6 Group 2 dep_var_1  1.71506499
##  7     7 Group 2 dep_var_1  0.46091621
##  8     8 Group 2 dep_var_1 -1.26506123
##  9     9 Group 2 dep_var_1 -0.68685285
## 10    10 Group 2 dep_var_1 -0.44566197
## # ... with 20 more rows

exclude columns not going to gather

gather() uses the select() function to select / deselect columns

(time_data_long <- time_data %>%
  gather(time, dep_var, -c(id, exp_grp)))

## # A tibble: 30 x 4
##       id exp_grp      time     dep_var
##    <int>  <fctr>     <chr>       <dbl>
##  1     1 Group 1 dep_var_1 -0.56047565
##  2     2 Group 1 dep_var_1 -0.23017749
##  3     3 Group 1 dep_var_1  1.55870831
##  4     4 Group 1 dep_var_1  0.07050839
##  5     5 Group 1 dep_var_1  0.12928774
##  6     6 Group 2 dep_var_1  1.71506499
##  7     7 Group 2 dep_var_1  0.46091621
##  8     8 Group 2 dep_var_1 -1.26506123
##  9     9 Group 2 dep_var_1 -0.68685285
## 10    10 Group 2 dep_var_1 -0.44566197
## # ... with 20 more rows
…
