…
```
## # A tibble: 1 x 6
##      id    cond gratitude_t1 gratitude_t2 interdep  interdep_c
##   <int>   <chr>        <dbl>        <dbl>    <dbl>       <dbl>
## 1    90 Control     3.365199     5.311505 9.664217 -0.01308482
```

```r
# filter only id "less than" 90
dplyr::filter(joined_survey, id < 90)
```

```
## # A tibble: 89 x 6
##       id      cond gratitude_t1 gratitude_t2  interdep  interdep_c
##    <int>     <chr>        <dbl>        <dbl>     <dbl>       <dbl>
##  1     1 Treatment     3.353288     5.893797  9.842613  0.16531157
##  2     2 Treatment     4.763558     5.049017  9.948384  0.27108255
##  3     3 Treatment     5.530219     5.562694  9.692757  0.01545512
##  4     4 Treatment     2.271587     5.022646  9.950367  0.27306492
##  5     5 Treatment     4.907668     4.715301  9.755841  0.07853868
##  6     6 Treatment     4.980753     5.658640  9.980231  0.30292934
##  7     7 Treatment     3.953997     4.648549 10.521232  0.84392998
##  8     8 Treatment     3.980700     5.659776 10.156181  0.47887958
##  9     9 Treatment     3.963771     5.837220  9.616332 -0.06096986
## 10    10 Treatment     3.654464     5.450500  9.042776 -0.63452632
## # ... with 79 more rows
```
…
```
## # A tibble: 1 x 6
##      id      cond gratitude_t1 gratitude_t2 interdep interdep_c
##   <int>     <chr>        <dbl>        <dbl>    <dbl>      <dbl>
## 1     3 Treatment     5.530219     5.562694 9.692757 0.01545512
```

```r
# filter only condition "not equal to" Treatment
dplyr::filter(joined_survey, cond != "Treatment")
```

```
## # A tibble: 50 x 6
##       id    cond gratitude_t1 gratitude_t2  interdep  interdep_c
##    <int>   <chr>        <dbl>        <dbl>     <dbl>       <dbl>
##  1    51 Control     2.784270     5.141624  9.818465  0.14116345
##  2    52 Control     3.947028     5.592738 10.130062  0.45276012
##  3    53 Control     3.446555     7.056807  9.826095  0.14879336
##  4    54 Control     3.535786     4.668187  9.931599  0.25429747
##  5    55 Control     4.345806     5.615672  9.031813 -0.64548861
##  6    56 Control     5.034903     6.794024  9.414751 -0.26255059
##  7    57 Control     6.065427     5.277110 10.338485  0.66118296
##  8    58 Control     3.765314     4.499286  8.988048 -0.68925371
##  9    59 Control     6.025614     4.673706  9.729034  0.05173236
## 10    60 Control     3.400082     5.129379  9.802501  0.12519957
## # ... with 40 more rows
```
  
  + arrange()
    + arrange allows you to sort the data based on certain columns
    

```r
# arrange joined_survey by cond
arrange(joined_survey, cond)
```

```
## # A tibble: 100 x 6
##       id    cond gratitude_t1 gratitude_t2  interdep  interdep_c
##    <int>   <chr>        <dbl>        <dbl>     <dbl>       <dbl>
##  1    51 Control     2.784270     5.141624  9.818465  0.14116345
##  2    52 Control     3.947028     5.592738 10.130062  0.45276012
##  3    53 Control     3.446555     7.056807  9.826095  0.14879336
##  4    54 Control     3.535786     4.668187  9.931599  0.25429747
##  5    55 Control     4.345806     5.615672  9.031813 -0.64548861
##  6    56 Control     5.034903     6.794024  9.414751 -0.26255059
##  7    57 Control     6.065427     5.277110 10.338485  0.66118296
##  8    58 Control     3.765314     4.499286  8.988048 -0.68925371
##  9    59 Control     6.025614     4.673706  9.729034  0.05173236
## 10    60 Control     3.400082     5.129379  9.802501  0.12519957
## # ... with 90 more rows
```

```r
# arrange joined_survey by id
arrange(joined_survey, id)
```

```
## # A tibble: 100 x 6
##       id      cond gratitude_t1 gratitude_t2  interdep  interdep_c
##    <int>     <chr>        <dbl>        <dbl>     <dbl>       <dbl>
##  1     1 Treatment     3.353288     5.893797  9.842613  0.16531157
##  2     2 Treatment     4.763558     5.049017  9.948384  0.27108255
##  3     3 Treatment     5.530219     5.562694  9.692757  0.01545512
##  4     4 Treatment     2.271587     5.022646  9.950367  0.27306492
##  5     5 Treatment     4.907668     4.715301  9.755841  0.07853868
##  6     6 Treatment     4.980753     5.658640  9.980231  0.30292934
##  7     7 Treatment     3.953997     4.648549 10.521232  0.84392998
##  8     8 Treatment     3.980700     5.659776 10.156181  0.47887958
##  9     9 Treatment     3.963771     5.837220  9.616332 -0.06096986
## 10    10 Treatment     3.654464     5.450500  9.042776 -0.63452632
## # ... with 90 more rows
```
  
  + select()
    + select allows you to select specific columns (for instance if you're working with a giant dataframe)
    

```r
# from joined_survey, select id, interdep_c, and gratitude_t1
select(joined_survey, id, interdep_c, gratitude_t1)
```

```
## # A tibble: 100 x 3
##       id  interdep_c gratitude_t1
##    <int>       <dbl>        <dbl>
##  1     1  0.16531157     3.353288
##  2     2  0.27108255     4.763558
##  3     3  0.01545512     5.530219
##  4     4  0.27306492     2.271587
##  5     5  0.07853868     4.907668
##  6     6  0.30292934     4.980753
##  7     7  0.84392998     3.953997
##  8     8  0.47887958     3.980700
##  9     9 -0.06096986     3.963771
## 10    10 -0.63452632     3.654464
## # ... with 90 more rows
```
…
```r
# mutate gratitude_mean
# two ways to do it
# note: not saving mutated variables; to do so, must save to old or new object (joined_survey) with <-
mutate(joined_survey,
       gratitude_mean = (gratitude_t1 + gratitude_t2) / 2,
       gratitude_mean_alt = mean(c(gratitude_t1, gratitude_t2),
                                 na.rm = TRUE)
)
```

```
## # A tibble: 100 x 8
##       id      cond gratitude_t1 gratitude_t2  interdep  interdep_c
##    <int>     <chr>        <dbl>        <dbl>     <dbl>       <dbl>
##  1     1 Treatment     3.353288     5.893797  9.842613  0.16531157
##  2     2 Treatment     4.763558     5.049017  9.948384  0.27108255
##  3     3 Treatment     5.530219     5.562694  9.692757  0.01545512
##  4     4 Treatment     2.271587     5.022646  9.950367  0.27306492
##  5     5 Treatment     4.907668     4.715301  9.755841  0.07853868
##  6     6 Treatment     4.980753     5.658640  9.980231  0.30292934
##  7     7 Treatment     3.953997     4.648549 10.521232  0.84392998
##  8     8 Treatment     3.980700     5.659776 10.156181  0.47887958
##  9     9 Treatment     3.963771     5.837220  9.616332 -0.06096986
## 10    10 Treatment     3.654464     5.450500  9.042776 -0.63452632
## # ... with 90 more rows, and 2 more variables: gratitude_mean <dbl>,
## #   gratitude_mean_alt <dbl>
```
…
```
## Source: local data frame [100 x 8]
## Groups: <by row>
## 
## # A tibble: 100 x 8
##       id      cond gratitude_t1 gratitude_t2  interdep  interdep_c
##    <int>     <chr>        <dbl>        <dbl>     <dbl>       <dbl>
##  1     1 Treatment     3.353288     5.893797  9.842613  0.16531157
##  2     2 Treatment     4.763558     5.049017  9.948384  0.27108255
##  3     3 Treatment     5.530219     5.562694  9.692757  0.01545512
##  4     4 Treatment     2.271587     5.022646  9.950367  0.27306492
##  5     5 Treatment     4.907668     4.715301  9.755841  0.07853868
##  6     6 Treatment     4.980753     5.658640  9.980231  0.30292934
##  7     7 Treatment     3.953997     4.648549 10.521232  0.84392998
##  8     8 Treatment     3.980700     5.659776 10.156181  0.47887958
##  9     9 Treatment     3.963771     5.837220  9.616332 -0.06096986
## 10    10 Treatment     3.654464     5.450500  9.042776 -0.63452632
## # ... with 90 more rows, and 2 more variables: gratitude_mean <dbl>,
## #   gratitude_mean_alt <dbl>
```
…
