…
```
## Warning: Column `country` has different attributes on LHS and RHS of join
```

```r
# view data for plot
tybur_et_al_fig1
```

```
## # A tibble: 30 x 4
## # Groups:   country [30]
##        country histpath traditionalism hist_path_rscld
##         <fctr>    <dbl>          <dbl>           <dbl>
##  1      Israel     0.52       2.790726            1.83
##  2   Singapore     0.31       2.715984            1.62
##  3     Belgium    -1.00       1.926433            0.31
##  4      Serbia    -0.23       1.890731            1.08
##  5       Spain    -0.05       1.632627            1.26
##  6   Australia    -0.25       1.944385            1.06
##  7    Slovakia    -1.00       2.755881            0.31
##  8      France    -0.46       1.972309            0.85
##  9 New Zealand    -0.98       2.110723            0.33
## 10     Denmark    -0.98       1.352026            0.33
## # ... with 20 more rows
```
…
